{
    "openapi": "3.0.0",
    "info": {
        "title": "My API",
        "description": "This is a description of my API",
        "version": "1.0.0"
    },
    "paths": {
        "/api/v1/orders/": {
            "get": {
                "tags": [
                    "Order"
                ],
                "summary": "Получение всех заказов",
                "description": "Получение всех заказов",
                "operationId": "GetOrders",
                "responses": {
                    "200": {
                        "description": "OK",
                        "content": {
                            "application/json": {
                                "schema": {
                                    "properties": {
                                        "message": {
                                            "type": "string"
                                        }
                                    },
                                    "type": "object"
                                }
                            }
                        }
                    }
                }
            },
            "post": {
                "tags": [
                    "Order"
                ],
                "summary": "Создание заказа",
                "description": "Создание заказа",
                "operationId": "Order",
                "parameters": [
                    {
                        "name": "dealer_name",
                        "in": "query",
                        "description": "Название дилера",
                        "required": true,
                        "schema": {
                            "type": "string"
                        }
                    },
                    {
                        "name": "contact_user_id",
                        "in": "query",
                        "description": "Контактное лицо, id сотрудника",
                        "required": true,
                        "schema": {
                            "type": "integer"
                        }
                    },
                    {
                        "name": "credit_sum",
                        "in": "query",
                        "description": "Сумма кредита, 100000.00 ",
                        "required": true
                    },
                    {
                        "name": "credit_term",
                        "in": "query",
                        "description": "Срок кредита, кол-во месяцев",
                        "required": true,
                        "schema": {
                            "type": "integer"
                        }
                    },
                    {
                        "name": "credit_percent",
                        "in": "query",
                        "description": "Процентная ставка, 10.00",
                        "required": true
                    },
                    {
                        "name": "description",
                        "in": "query",
                        "description": "Описание причины кредита",
                        "required": true,
                        "schema": {
                            "type": "string"
                        }
                    },
                    {
                        "name": "bank_id",
                        "in": "query",
                        "description": "Связь с банком, Id",
                        "required": true,
                        "schema": {
                            "type": "integer"
                        }
                    }
                ],
                "responses": {
                    "200": {
                        "description": "OK",
                        "content": {
                            "application/json": {
                                "schema": {
                                    "properties": {
                                        "message": {
                                            "type": "string"
                                        }
                                    },
                                    "type": "object"
                                }
                            }
                        }
                    }
                }
            }
        },
        "/api/v1/orders/{order}": {
            "get": {
                "tags": [
                    "Order"
                ],
                "summary": "Получение заказа по id",
                "description": "Получение заказа по id",
                "operationId": "GetOrder",
                "parameters": [
                    {
                        "name": "order",
                        "in": "path",
                        "required": true,
                        "schema": {
                            "type": "integer"
                        }
                    }
                ],
                "responses": {
                    "200": {
                        "description": "OK",
                        "content": {
                            "application/json": {
                                "schema": {
                                    "properties": {
                                        "message": {
                                            "type": "string"
                                        }
                                    },
                                    "type": "object"
                                }
                            }
                        }
                    }
                }
            },
            "post": {
                "tags": [
                    "Order"
                ],
                "summary": "Обновление заказа",
                "description": "Обновление заказа",
                "operationId": "UpdOrder",
                "parameters": [
                    {
                        "name": "order",
                        "in": "path",
                        "required": true,
                        "schema": {
                            "type": "integer"
                        }
                    },
                    {
                        "name": "dealer_name",
                        "in": "query",
                        "description": "Название дилера",
                        "required": false,
                        "schema": {
                            "type": "string"
                        }
                    },
                    {
                        "name": "contact_user_id",
                        "in": "query",
                        "description": "Контактное лицо, id сотрудника",
                        "required": false,
                        "schema": {
                            "type": "integer"
                        }
                    },
                    {
                        "name": "credit_sum",
                        "in": "query",
                        "description": "Сумма кредита, 100000.00 ",
                        "required": false
                    },
                    {
                        "name": "credit_term",
                        "in": "query",
                        "description": "Срок кредита, кол-во месяцев",
                        "required": false,
                        "schema": {
                            "type": "integer"
                        }
                    },
                    {
                        "name": "credit_percent",
                        "in": "query",
                        "description": "Процентная ставка, 10.00",
                        "required": false
                    },
                    {
                        "name": "description",
                        "in": "query",
                        "description": "Описание причины кредита",
                        "required": false,
                        "schema": {
                            "type": "string"
                        }
                    },
                    {
                        "name": "bank_id",
                        "in": "query",
                        "description": "Связь с банком, Id",
                        "required": false,
                        "schema": {
                            "type": "integer"
                        }
                    },
                    {
                        "name": "status",
                        "in": "query",
                        "description": "Один из вариантов: 'New', 'Process', 'Approved', 'Rejected'",
                        "required": false,
                        "schema": {
                            "type": "string"
                        }
                    }
                ],
                "responses": {
                    "200": {
                        "description": "OK",
                        "content": {
                            "application/json": {
                                "schema": {
                                    "properties": {
                                        "message": {
                                            "type": "string"
                                        }
                                    },
                                    "type": "object"
                                }
                            }
                        }
                    }
                }
            },
            "delete": {
                "tags": [
                    "Order"
                ],
                "summary": "Удаление заказа по id",
                "description": "Удаление",
                "operationId": "delOrder",
                "parameters": [
                    {
                        "name": "order",
                        "in": "path",
                        "required": true,
                        "schema": {
                            "type": "integer"
                        }
                    }
                ],
                "responses": {
                    "200": {
                        "description": "OK",
                        "content": {
                            "application/json": {
                                "schema": {
                                    "properties": {
                                        "message": {
                                            "type": "string"
                                        }
                                    },
                                    "type": "object"
                                }
                            }
                        }
                    }
                }
            }
        }
    }
}